/* XPM */
static char * gasql_M_xpm[] = {
"32 32 311 2",
"  	c None",
". 	c #A6A6A6",
"+ 	c #D6D7D7",
"@ 	c #A4B5B5",
"# 	c #81B4B4",
"$ 	c #7CB0B1",
"% 	c #7CAEAF",
"& 	c #9CB4B4",
"* 	c #CCCECE",
"= 	c #C3C3C3",
"- 	c #D5D5D5",
"; 	c #3C3C3C",
"> 	c #9A9A9A",
", 	c #9FA09F",
"' 	c #808D8B",
") 	c #608480",
"! 	c #547976",
"~ 	c #557B78",
"{ 	c #597F7C",
"] 	c #587E7C",
"^ 	c #547977",
"/ 	c #587D7B",
"( 	c #5B7F7D",
"_ 	c #788A89",
": 	c #989A9A",
"< 	c #969696",
"[ 	c #9E9E9E",
"} 	c #1F1F1F",
"| 	c #2F2F2F",
"1 	c #767676",
"2 	c #777777",
"3 	c #484848",
"4 	c #989898",
"5 	c #A7A7A7",
"6 	c #A3A4A3",
"7 	c #8A8E8B",
"8 	c #6C706D",
"9 	c #747875",
"0 	c #979B99",
"a 	c #8D918F",
"b 	c #717573",
"c 	c #9FA3A1",
"d 	c #9FA1A0",
"e 	c #A5A5A5",
"f 	c #222222",
"g 	c #111111",
"h 	c #676767",
"i 	c #CBCBCB",
"j 	c #CECECE",
"k 	c #BEBEBE",
"l 	c #646464",
"m 	c #F1F1F1",
"n 	c #CAD2D1",
"o 	c #AFCCCB",
"p 	c #A6CACB",
"q 	c #A6CACA",
"r 	c #ADC8C8",
"s 	c #D6DADA",
"t 	c #D8D8D8",
"u 	c #E1E1E1",
"v 	c #9C9C9C",
"w 	c #808080",
"x 	c #B1B1B1",
"y 	c #B2B2B2",
"z 	c #242424",
"A 	c #2E2E2E",
"B 	c #5F5F5F",
"C 	c #A2A2A2",
"D 	c #CACACA",
"E 	c #C5C5C5",
"F 	c #B8B8B8",
"G 	c #555555",
"H 	c #CCCCCC",
"I 	c #8B9695",
"J 	c #618C8B",
"K 	c #498181",
"L 	c #4A8281",
"M 	c #4A8282",
"N 	c #4A8181",
"O 	c #5B8483",
"P 	c #9DA3A3",
"Q 	c #9F9F9F",
"R 	c #ADADAD",
"S 	c #5D5D5D",
"T 	c #737373",
"U 	c #999999",
"V 	c #7E7E7E",
"W 	c #707070",
"X 	c #909090",
"Y 	c #B9B9B9",
"Z 	c #B3B3B3",
"` 	c #828282",
" .	c #B6B6B6",
"..	c #9A9C9B",
"+.	c #8F9591",
"@.	c #737B76",
"#.	c #6C746F",
"$.	c #88908B",
"%.	c #8D9591",
"&.	c #767E7A",
"*.	c #79817D",
"=.	c #919995",
"-.	c #929995",
";.	c #9D9D9D",
">.	c #7F7F7F",
",.	c #444444",
"'.	c #AEAEAE",
").	c #C1C1C1",
"!.	c #8B8B8B",
"~.	c #5B5B5B",
"{.	c #474747",
"].	c #686868",
"^.	c #404040",
"/.	c #ABABAB",
"(.	c #8C8C8C",
"_.	c #646463",
":.	c #555554",
"<.	c #929292",
"[.	c #6F6F6F",
"}.	c #A8A8A8",
"|.	c #A1A1A1",
"1.	c #B0B0B0",
"2.	c #B7B7B7",
"3.	c #D1D1D1",
"4.	c #888888",
"5.	c #616161",
"6.	c #2D2D2D",
"7.	c #1A1A1A",
"8.	c #070707",
"9.	c #A0A0A0",
"0.	c #747474",
"a.	c #898989",
"b.	c #8D8D8D",
"c.	c #757575",
"d.	c #878787",
"e.	c #8A8A8A",
"f.	c #ACACAC",
"g.	c #161616",
"h.	c #CFCFCF",
"i.	c #A4A4A4",
"j.	c #656565",
"k.	c #313131",
"l.	c #7D7D7D",
"m.	c #A9A9A9",
"n.	c #A3A3A3",
"o.	c #7B7B7B",
"p.	c #939393",
"q.	c #AFAFAF",
"r.	c #868686",
"s.	c #C2C2C2",
"t.	c #565656",
"u.	c #171717",
"v.	c #575757",
"w.	c #6C6C6C",
"x.	c #1E1E1E",
"y.	c #8E8E8E",
"z.	c #7A7A7A",
"A.	c #838383",
"B.	c #1D1D1D",
"C.	c #6E6E6E",
"D.	c #424242",
"E.	c #0E0E0E",
"F.	c #AAAAAA",
"G.	c #919191",
"H.	c #383838",
"I.	c #141414",
"J.	c #080808",
"K.	c #696969",
"L.	c #C6C6C6",
"M.	c #BFBFBF",
"N.	c #B4B4B4",
"O.	c #535353",
"P.	c #333333",
"Q.	c #787878",
"R.	c #454545",
"S.	c #C4C4C4",
"T.	c #BBBBBB",
"U.	c #9B9B9B",
"V.	c #9E9E9D",
"W.	c #797979",
"X.	c #373737",
"Y.	c #353530",
"Z.	c #BBBBB0",
"`.	c #C3C3B8",
" +	c #CACAC0",
".+	c #C8C8BD",
"++	c #C4C4BB",
"@+	c #BBBBB5",
"#+	c #A0A09A",
"$+	c #767671",
"%+	c #8D8D8C",
"&+	c #86866E",
"*+	c #60604B",
"=+	c #24241D",
"-+	c #25251B",
";+	c #353526",
">+	c #484835",
",+	c #4B4B3B",
"'+	c #474737",
")+	c #51513F",
"!+	c #6C6C56",
"~+	c #94947C",
"{+	c #A0A084",
"]+	c #A7A784",
"^+	c #B4B4A1",
"/+	c #6D6D6D",
"(+	c #949494",
"_+	c #636363",
":+	c #444443",
"<+	c #171716",
"[+	c #F3F3EB",
"}+	c #E6E6D1",
"|+	c #E6E6CF",
"1+	c #D7D7B2",
"2+	c #575741",
"3+	c #2E2E23",
"4+	c #838372",
"5+	c #B6B6A6",
"6+	c #98988A",
"7+	c #646455",
"8+	c #505041",
"9+	c #545441",
"0+	c #767666",
"a+	c #5D5D59",
"b+	c #2B2B2B",
"c+	c #BABABA",
"d+	c #61615D",
"e+	c #8D8D76",
"f+	c #A1A192",
"g+	c #DADABF",
"h+	c #C7C79D",
"i+	c #C5C59A",
"j+	c #BBBB8C",
"k+	c #7E7E5E",
"l+	c #1F1F15",
"m+	c #2B2B1F",
"n+	c #555541",
"o+	c #747459",
"p+	c #93936F",
"q+	c #A9A981",
"r+	c #8C8C77",
"s+	c #2C2C2C",
"t+	c #262626",
"u+	c #666666",
"v+	c #848484",
"w+	c #9A9A95",
"x+	c #9F9F97",
"y+	c #A2A290",
"z+	c #A3A38E",
"A+	c #AEAE8E",
"B+	c #B0B08E",
"C+	c #A4A47F",
"D+	c #ACAC8D",
"E+	c #757556",
"F+	c #4E4E3A",
"G+	c #3E3E2B",
"H+	c #4A4A37",
"I+	c #727269",
"J+	c #4C4C4C",
"K+	c #252525",
"L+	c #818181",
"M+	c #979794",
"N+	c #9D9D99",
"O+	c #A1A198",
"P+	c #A3A399",
"Q+	c #919182",
"R+	c #89897D",
"S+	c #272727",
"T+	c #232323",
"U+	c #606060",
"V+	c #626262",
"W+	c #303030",
"X+	c #2A2A2A",
"Y+	c #212121",
"Z+	c #202020",
"`+	c #6A6A6A",
" @	c #323232",
".@	c #3E3E3E",
"+@	c #5A5A5A",
"@@	c #4A4A4A",
"#@	c #3F3F3F",
"$@	c #1C1C1C",
"%@	c #151515",
"&@	c #121212",
"*@	c #434343",
"=@	c #EAEAEA",
"-@	c #EEEEEE",
";@	c #585858",
">@	c #101010",
",@	c #060606",
"'@	c #282828",
")@	c #5C5C5C",
"!@	c #0D0D0D",
"~@	c #0C0C0C",
"{@	c #000000",
"]@	c #393939",
"^@	c #0A0A0A",
"/@	c #090909",
"(@	c #0B0B0B",
"_@	c #010101",
":@	c #181818",
"<@	c #4B4B4B",
"[@	c #4F4F4F",
"}@	c #4E4E4E",
"|@	c #050505",
"1@	c #505050",
"2@	c #020202",
"3@	c #030303",
"4@	c #4D4D4D",
"5@	c #040404",
"6@	c #131313",
"                                                                ",
"          . + @ # $ $ $ $ $ $ % & * = - ;                       ",
"          > , ' ) ! ~ { ] ^ / ( _ : < [ }       | 1 2 3         ",
"          4 5 6 7 8 9 0 a b a c d e 5 5 f     g h i j k e l     ",
"  m n o p p p p p p q r s t u v w v x y z     A B C D E k F G   ",
"  H I J K K L M K K N O P Q R S T U x y z     V W T X F Y Z `   ",
"   ...+.@.#.$.%.&.*.=.-.v ;.Q G >.C y y z   ,.'.).!.~.{.].T ^.  ",
"  = /.(._.:.(.<.[.1 }.< [ '.x B > |.1.y z   T 2.3.= 4.5.6.7.8.  ",
"  = 9.0.>.S a.b.c.d.> T e.f.y B < (.R y z g.< k h.= i.` j.k.    ",
"  = . <.l.].C m.j.<.n.o.p.q.y B 1.q.x y z   r.s.E 2.l.t.{.u.    ",
"  = x }.l v.< 1.>.> R 4 v '.y B R y y y z     !.x i.w.,.x.      ",
"  = y '.y.z.|.x [ ` m.C A.9.y B v y y y z     B.5.C.T D.E.      ",
"  = y y ;.0.;.x e e.F.1.f.1.y B G.y y y z     H.{.I.J.          ",
"  = y y /.n.Z Y Y 2. .x y y /.K.L.M.2.N.O.  P.Q.R.              ",
"  = y y 2.H S.Y k T.x U.V.W.X.Y.Z.`. +.+++@+#+$+%+              ",
"  = y y Y H i.A.G.r.y.j.&+*+=+-+;+>+,+'+)+!+~+{+]+^+/+          ",
"  = y y F S.(+c.l._+:+<+[+}+|+1+2+3+4+5+6+7+8+9+0+a+b+          ",
"  = F.S.c+c+9.X 1 d+e+f+g+h+i+j+k+l+m+n+o+p+q+r+:.s+t+          ",
"  H.H.u+[.v+G.> |.i.w+x+y+z+A+B+C+D+E+F+G+H+I+J+t+z K+          ",
"      W h u+u+u+u+].[.Q.l.L+A.<.M+N+O+P+Q+R+R.S+z T+T+          ",
"      W K.u+u+u+U+V+u+u+u+u+u+u+u+u+u+u+W+X+t+f T+Y+Z+          ",
"      W `+u+u+u+b+A 6. @.@+@u+u+u+u+u+u+Y+7.Y+x.Z+B.7.          ",
"      @@/+u+u+u+G s.G.2 V+#@.@u+u+u+u+u+Z+7.$@7.%@I.&@          ",
"      {.K.u+u+u+*@y =@-@L.;@b+u+u+u+u+u+} I.g.&@>@>@,@          ",
"        u+u+u+u+'@J+)@@@D.S+b+u+u+u+u+u+Z+>@!@~@~@J.{@          ",
"        u+u+u+u+]@e <.B ]@Z+s+u+u+u+u+u+Y+!@^@/@(@_@            ",
"        u+u+u+u+v..@6.:@:@B.<@u+u+u+u+j.Z+~@J.(@_@{@            ",
"        u+u+u+u+u+u+t.[@}@+@u+u+u+u+j._+} J./@|@{@              ",
"        {.<@1@v.U+_+u+u+u+u+u+u+u+u+j.B Z+^@J.{@                ",
"              %@T+'@X.^.1@U+u+u+u+u+l )@Y+E.2@                  ",
"                    {@3@J.E.u.} W+{.4@@@z ,@                    ",
"                            _@5@|@^@6@:@g.                      "};
