/* XPM */
static char * form_xpm[] = {
"23 22 166 2",
"  	c None",
". 	c #FDFDFD",
"+ 	c #F7F7F7",
"@ 	c #EAEBEB",
"# 	c #D7E1E0",
"$ 	c #D2E6E5",
"% 	c #D1E5E5",
"& 	c #D1E4E4",
"* 	c #D5E2E2",
"= 	c #E6E9E9",
"- 	c #F2F2F2",
"; 	c #E8E8E8",
"> 	c #EEEEEE",
", 	c #F5F5F5",
"' 	c #949494",
") 	c #D6D6D6",
"! 	c #ABAFAF",
"~ 	c #769695",
"{ 	c #5E9E9E",
"] 	c #529697",
"^ 	c #539394",
"/ 	c #6A9494",
"( 	c #A5AFAF",
"_ 	c #C6C6C6",
": 	c #A9A9A9",
"< 	c #BFBFBF",
"[ 	c #CBCBCB",
"} 	c #3E3E3E",
"| 	c #EBEBEB",
"1 	c #AEAEAE",
"2 	c #8E9190",
"3 	c #708785",
"4 	c #568583",
"5 	c #467877",
"6 	c #457776",
"7 	c #457877",
"8 	c #467878",
"9 	c #457777",
"0 	c #487877",
"a 	c #5F7F7E",
"b 	c #8F9797",
"c 	c #A0A0A0",
"d 	c #919191",
"e 	c #A2A2A2",
"f 	c #303030",
"g 	c #E1E1E1",
"h 	c #999999",
"i 	c #939494",
"j 	c #8C928E",
"k 	c #848F88",
"l 	c #78847D",
"m 	c #6E7A73",
"n 	c #717D76",
"o 	c #7E8A83",
"p 	c #838F89",
"q 	c #828E88",
"r 	c #78857E",
"s 	c #6F7B75",
"t 	c #7A8680",
"u 	c #84908A",
"v 	c #89918D",
"w 	c #939594",
"x 	c #979797",
"y 	c #2E2E2E",
"z 	c #E7E7E7",
"A 	c #B0B0B0",
"B 	c #ADADAC",
"C 	c #9A9A99",
"D 	c #7A7A79",
"E 	c #616261",
"F 	c #666665",
"G 	c #929291",
"H 	c #ABABAB",
"I 	c #9F9F9F",
"J 	c #818180",
"K 	c #6A6A69",
"L 	c #8A8A8A",
"M 	c #AEAFAE",
"N 	c #ADADAD",
"O 	c #A8A8A8",
"P 	c #AAAAAA",
"Q 	c #363636",
"R 	c #B2B2B2",
"S 	c #757575",
"T 	c #5F5F5F",
"U 	c #5A5A5A",
"V 	c #474747",
"W 	c #7A7A7A",
"X 	c #9E9E9E",
"Y 	c #808080",
"Z 	c #747474",
"` 	c #575757",
" .	c #ACACAC",
"..	c #9A9A9A",
"+.	c #868686",
"@.	c #B1B1B1",
"#.	c #888888",
"$.	c #646464",
"%.	c #7D7D7D",
"&.	c #787878",
"*.	c #4E4E4E",
"=.	c #7C7C7C",
"-.	c #7E7E7E",
";.	c #959595",
">.	c #A5A5A5",
",.	c #828282",
"'.	c #686868",
").	c #7B7B7B",
"!.	c #696969",
"~.	c #5C5C5C",
"{.	c #939393",
"].	c #777777",
"^.	c #6F6F6F",
"/.	c #838383",
"(.	c #AFAFAF",
"_.	c #9B9B9B",
":.	c #767676",
"<.	c #707070",
"[.	c #717171",
"}.	c #585858",
"|.	c #929292",
"1.	c #6A6A6A",
"2.	c #A1A1A1",
"3.	c #A4A4A4",
"4.	c #323232",
"5.	c #3C3C3C",
"6.	c #818181",
"7.	c #A7A7A7",
"8.	c #676767",
"9.	c #989898",
"0.	c #727272",
"a.	c #8F8F8F",
"b.	c #848484",
"c.	c #737373",
"d.	c #8D8D8D",
"e.	c #B3B3B3",
"f.	c #B6B6B6",
"g.	c #BBBBBB",
"h.	c #BDBDBD",
"i.	c #B4B4B4",
"j.	c #C0C0C0",
"k.	c #D0D0D0",
"l.	c #CECECE",
"m.	c #C8C8C8",
"n.	c #C7C7C7",
"o.	c #C9C9C9",
"p.	c #C4C4C4",
"q.	c #D3D3D3",
"r.	c #BEBEBE",
"s.	c #9C9C9C",
"t.	c #858585",
"u.	c #CDCDCD",
"v.	c #626262",
"w.	c #878787",
"x.	c #C2C2C2",
"y.	c #6E6E6E",
"z.	c #6B6B6B",
"A.	c #606060",
"B.	c #6D6D6D",
"C.	c #6C6C6C",
"D.	c #373737",
"E.	c #333333",
"F.	c #2D2D2D",
"G.	c #2F2F2F",
"H.	c #343434",
"I.	c #111111",
". + @ # $ % % % % % % % % % % & * = - ; > , ' ",
"+ ) ! ~ { ] ] ] ] ] ] ] ] ] ] ^ / ( _ : < [ } ",
"| 1 2 3 4 5 6 7 5 8 8 5 9 5 8 0 a b c d e e f ",
"g h i j k l m n o p q r s t p u v w x ' x x y ",
"z A A B C D E F G H I J K L M N O P 1 A A A Q ",
"z R A I S T U V W X Y Z ` Y  ...+.d O @.R R Q ",
"z R N #.$.%.&.*.=.d -.+.U ;.>.,.'.).e @.R R Q ",
"z R H +.).;.!.~.{.I X ].'.: O L ^./.O R R R Q ",
"z R (.c _.#.U :.>.(.A ` <.e 1 ;.[.L N R R R Q ",
"z R R A >.S }.^.|. .R 1.S 2.@.e #.;.1 R R R Q ",
"z R R R 3.!.4.5.6. .R 3.3.A R A >.h e (.R R Q ",
"z R R R R (.e h 7.@.R  .).8.2.A 9.0./.O R R Q ",
"z R R R R P 6.$.a.1 R 1 b.c.2.@.1 O  .@.R R Q ",
"z R R R R H d.-.X @.e.e.1  .@.R R R R R R R Q ",
"z R R R R @.@.f.g.h.h.h.h.h.g.i.A R R R R R Q ",
"z R R R R R j.k.l.m.n.[ _ o.p.: e R R R R R Q ",
"z R R R R R n.q.r.3.s.e.;.7.H t.L R R R R R Q ",
"z R R R R R n.u.7.b.^.9.v.b.;.c.6.R R R R R Q ",
"z R R R R R n.u.P b.c...1.w.|.c.6.R R R R R Q ",
"z R R R R R x.e.L 0.y.%.z.S Z A.6.R R R R R Q ",
"z R R R R R f...:.B.B.y.C.B.B.0.x R R R R R Q ",
"|.D.D.D.D.D.D.E.y F.F.F.F.F.F.G.H.D.D.D.D.D.I."};
